0001-Prevent-invalid-inclusions-when-HAVE_-is-set-to-0.patch 750b9542cb55e6328cca01d3ca997f1373b9530afa95e04213168676936e7bfa
0002-skip-building-examples.patch 835ddecfed752e0f49be9b0f8ff7ba76541cb0a150044327316e22ca84f8d0c2
0003-build-static-or-shared-not-both.patch d6026271dcb3d8fc74b41e235620ae31576a798e77aa411c3af8cd9e948c02b1
0004-android-and-mingw-fixes.patch 37a43eddbcb1b7dde49e7659ae895dfd0ff1df66666c1371ba7d5bfc49d8b438
cmake 3.27.1
features core
portfile.cmake ac63047b644fa758860dd7ba48ff9a13b058c6f240b8e8d675b8fbba035976be
ports.cmake 5a8e00cedff0c898b1f90f7d129329d0288801bc9056562b039698caf31ff3f3
post_build_checks 2
powershell 7.2.11
triplet x64-windows-static
triplet_abi e3cd9820386c639b8cbf844d43853cbc838f75a1488bfd4add98d5646c716538-e36df1c7f50ab25f9c182fa927d06c19ae082e0d599f132b3f655784b49e4b33-f4a88a8e9062ec73eb4a671e8bb00c783a16b73c
usage be22662327df993eebc437495add75acb365ab18d37c7e5de735d4ea4f5d3083
vcpkg-cmake 5ab0580a8ef835a660276df405753d5bb4dec8e09eff087a800ce7b4088b7231
vcpkg-cmake-wrapper.cmake 5d49ef2ee6448479c2aad0e5f732e2676eaba0411860f9bebabe6002d66f57d1
vcpkg.json bc94e2540efabe36130a806381a001c57194e7de67454ab7ff1e30aa15e6ce23
vcpkg_copy_pdbs d57e4f196c82dc562a9968c6155073094513c31e2de475694143d3aa47954b1c
vcpkg_fixup_pkgconfig 588d833ff057d3ca99c14616c7ecfb5948b5e2a9e4fc02517dceb8b803473457
vcpkg_from_git 8f27bff0d01c6d15a3e691758df52bfbb0b1b929da45c4ebba02ef76b54b1881
vcpkg_from_github b743742296a114ea1b18ae99672e02f142c4eb2bef7f57d36c038bedbfb0502f
vcpkg_replace_string d43c8699ce27e25d47367c970d1c546f6bc36b6df8fb0be0c3986eb5830bd4f1
