cmake 3.27.1
features core
portfile.cmake a46550a686bcd818ffd463b174ad94aca1f2f4d429c3374878b32dc3d42dc920
ports.cmake 5a8e00cedff0c898b1f90f7d129329d0288801bc9056562b039698caf31ff3f3
post_build_checks 2
powershell 7.2.11
triplet x64-windows-static
triplet_abi e3cd9820386c639b8cbf844d43853cbc838f75a1488bfd4add98d5646c716538-e36df1c7f50ab25f9c182fa927d06c19ae082e0d599f132b3f655784b49e4b33-f4a88a8e9062ec73eb4a671e8bb00c783a16b73c
usage e6b11a984de2aa47db13bd5a0860d159dafb683963944c29812e5fc5005f08ec
vcpkg-cmake 5ab0580a8ef835a660276df405753d5bb4dec8e09eff087a800ce7b4088b7231
vcpkg-cmake-config 4f151e78e438027ad8ae37408d2030cec844218aa9ad5027cd240233b0fc2948
vcpkg-cmake-wrapper.cmake 337930d9e5ff69849ec9ca433f90a5c1106a78b85a84f6b3d1b3156532af9ef7
vcpkg.json d768f811090c77ef15faeeb9dbbf58610b34e1aabf58cb3a60c357e95edc4983
vcpkg_copy_pdbs d57e4f196c82dc562a9968c6155073094513c31e2de475694143d3aa47954b1c
vcpkg_fixup_pkgconfig 588d833ff057d3ca99c14616c7ecfb5948b5e2a9e4fc02517dceb8b803473457
vcpkg_from_git 8f27bff0d01c6d15a3e691758df52bfbb0b1b929da45c4ebba02ef76b54b1881
vcpkg_from_github b743742296a114ea1b18ae99672e02f142c4eb2bef7f57d36c038bedbfb0502f
vcpkg_minimum_required 4da8ab803b83c8f1c7b6272298108b9f62a7cd0618e563242c8e584692534171
vcpkg_replace_string d43c8699ce27e25d47367c970d1c546f6bc36b6df8fb0be0c3986eb5830bd4f1
