^C:\USERS\GIOVANNI\ANCIENT_MEMORIES\RME\SOURCE\MKPCH.CPP
C:\USERS\GIOVANNI\ANCIENT_MEMORIES\RME\VCPROJ\PROJECT\X64\RELEASE\RME_X64.PCH
C:\USERS\GIOVANNI\ANCIENT_MEMORIES\RME\VCPROJ\PROJECT\X64\RELEASE\VC143.PDB
C:\USERS\GIOVANNI\ANCIENT_MEMORIES\RME\VCPROJ\PROJECT\X64\RELEASE\MKPCH.OBJ
^C:\USERS\GIOVANNI\ANCIENT_MEMORIES\RME\SOURCE\ABOUT_WINDOW.CPP|C:\USERS\GIOVANNI\ANCIENT_MEMORIES\RME\SOURCE\ACTION.CPP|C:\USERS\GIOVANNI\ANCIENT_MEMORIES\RME\SOURCE\ACTIONS_HISTORY_WINDOW.CPP|C:\USERS\GIOVANNI\ANCIENT_MEMORIES\RME\SOURCE\APPLICATION.CPP|C:\USERS\GIOVANNI\ANCIENT_MEMORIES\RME\SOURCE\ARTPROVIDER.CPP|C:\USERS\GIOVANNI\ANCIENT_MEMORIES\RME\SOURCE\BASEMAP.CPP|C:\USERS\GIOVANNI\ANCIENT_MEMORIES\RME\SOURCE\BROWSE_TILE_WINDOW.CPP|C:\USERS\GIOVANNI\ANCIENT_MEMORIES\RME\SOURCE\BRUSH.CPP|C:\USERS\GIOVANNI\ANCIENT_MEMORIES\RME\SOURCE\BRUSH_TABLES.CPP|C:\USERS\GIOVANNI\ANCIENT_MEMORIES\RME\SOURCE\CARPET_BRUSH.CPP|C:\USERS\GIOVANNI\ANCIENT_MEMORIES\RME\SOURCE\CLIENT_VERSION.CPP|C:\USERS\GIOVANNI\ANCIENT_MEMORIES\RME\SOURCE\COMMON.CPP|C:\USERS\GIOVANNI\ANCIENT_MEMORIES\RME\SOURCE\COMMON_WINDOWS.CPP|C:\USERS\GIOVANNI\ANCIENT_MEMORIES\RME\SOURCE\COMPLEXITEM.CPP|C:\USERS\GIOVANNI\ANCIENT_MEMORIES\RME\SOURCE\CONTAINER_PROPERTIES_WINDOW.CPP|C:\USERS\GIOVANNI\ANCIENT_MEMORIES\RME\SOURCE\COPYBUFFER.CPP|C:\USERS\GIOVANNI\ANCIENT_MEMORIES\RME\SOURCE\CREATURE.CPP|C:\USERS\GIOVANNI\ANCIENT_MEMORIES\RME\SOURCE\CREATURES.CPP|C:\USERS\GIOVANNI\ANCIENT_MEMORIES\RME\SOURCE\CREATURE_BRUSH.CPP|C:\USERS\GIOVANNI\ANCIENT_MEMORIES\RME\SOURCE\DAT_DEBUG_VIEW.CPP|C:\USERS\GIOVANNI\ANCIENT_MEMORIES\RME\SOURCE\DCBUTTON.CPP|C:\USERS\GIOVANNI\ANCIENT_MEMORIES\RME\SOURCE\DOODAD_BRUSH.CPP|C:\USERS\GIOVANNI\ANCIENT_MEMORIES\RME\SOURCE\EDITOR.CPP|C:\USERS\GIOVANNI\ANCIENT_MEMORIES\RME\SOURCE\EDITOR_TABS.CPP|C:\USERS\GIOVANNI\ANCIENT_MEMORIES\RME\SOURCE\ERASER_BRUSH.CPP|C:\USERS\GIOVANNI\ANCIENT_MEMORIES\RME\SOURCE\EXTENSION.CPP|C:\USERS\GIOVANNI\ANCIENT_MEMORIES\RME\SOURCE\EXTENSION_WINDOW.CPP|C:\USERS\GIOVANNI\ANCIENT_MEMORIES\RME\SOURCE\FILEHANDLE.CPP|C:\USERS\GIOVANNI\ANCIENT_MEMORIES\RME\SOURCE\FIND_ITEM_WINDOW.CPP|C:\USERS\GIOVANNI\ANCIENT_MEMORIES\RME\SOURCE\GRAPHICS.CPP|C:\USERS\GIOVANNI\ANCIENT_MEMORIES\RME\SOURCE\GROUND_BRUSH.CPP|C:\USERS\GIOVANNI\ANCIENT_MEMORIES\RME\SOURCE\GUI.CPP|C:\USERS\GIOVANNI\ANCIENT_MEMORIES\RME\SOURCE\HOUSE.CPP|C:\USERS\GIOVANNI\ANCIENT_MEMORIES\RME\SOURCE\HOUSE_BRUSH.CPP|C:\USERS\GIOVANNI\ANCIENT_MEMORIES\RME\SOURCE\HOUSE_EXIT_BRUSH.CPP|C:\USERS\GIOVANNI\ANCIENT_MEMORIES\RME\SOURCE\IOMAP.CPP|C:\USERS\GIOVANNI\ANCIENT_MEMORIES\RME\SOURCE\IOMAP_OTBM.CPP|C:\USERS\GIOVANNI\ANCIENT_MEMORIES\RME\SOURCE\IOMINIMAP.CPP|C:\USERS\GIOVANNI\ANCIENT_MEMORIES\RME\SOURCE\ITEM.CPP|C:\USERS\GIOVANNI\ANCIENT_MEMORIES\RME\SOURCE\ITEMS.CPP|C:\USERS\GIOVANNI\ANCIENT_MEMORIES\RME\SOURCE\ITEM_ATTRIBUTES.CPP|C:\USERS\GIOVANNI\ANCIENT_MEMORIES\RME\SOURCE\LIGHT_DRAWER.CPP|C:\USERS\GIOVANNI\ANCIENT_MEMORIES\RME\SOURCE\LIVE_ACTION.CPP|C:\USERS\GIOVANNI\ANCIENT_MEMORIES\RME\SOURCE\LIVE_CLIENT.CPP|C:\USERS\GIOVANNI\ANCIENT_MEMORIES\RME\SOURCE\LIVE_PEER.CPP|C:\USERS\GIOVANNI\ANCIENT_MEMORIES\RME\SOURCE\LIVE_SERVER.CPP|C:\USERS\GIOVANNI\ANCIENT_MEMORIES\RME\SOURCE\LIVE_SOCKET.CPP|C:\USERS\GIOVANNI\ANCIENT_MEMORIES\RME\SOURCE\LIVE_TAB.CPP|C:\USERS\GIOVANNI\ANCIENT_MEMORIES\RME\SOURCE\MAIN_MENUBAR.CPP|C:\USERS\GIOVANNI\ANCIENT_MEMORIES\RME\SOURCE\MAIN_TOOLBAR.CPP|C:\USERS\GIOVANNI\ANCIENT_MEMORIES\RME\SOURCE\MAP.CPP|C:\USERS\GIOVANNI\ANCIENT_MEMORIES\RME\SOURCE\MAP_DISPLAY.CPP|C:\USERS\GIOVANNI\ANCIENT_MEMORIES\RME\SOURCE\MAP_DRAWER.CPP|C:\USERS\GIOVANNI\ANCIENT_MEMORIES\RME\SOURCE\MAP_REGION.CPP|C:\USERS\GIOVANNI\ANCIENT_MEMORIES\RME\SOURCE\MAP_TAB.CPP|C:\USERS\GIOVANNI\ANCIENT_MEMORIES\RME\SOURCE\MAP_WINDOW.CPP|C:\USERS\GIOVANNI\ANCIENT_MEMORIES\RME\SOURCE\MATERIALS.CPP|C:\USERS\GIOVANNI\ANCIENT_MEMORIES\RME\SOURCE\MINIMAP_WINDOW.CPP|C:\USERS\GIOVANNI\ANCIENT_MEMORIES\RME\SOURCE\MT_RAND.CPP|C:\USERS\GIOVANNI\ANCIENT_MEMORIES\RME\SOURCE\NET_CONNECTION.CPP|C:\USERS\GIOVANNI\ANCIENT_MEMORIES\RME\SOURCE\NUMBERTEXTCTRL.CPP|C:\USERS\GIOVANNI\ANCIENT_MEMORIES\RME\SOURCE\OLD_PROPERTIES_WINDOW.CPP|C:\USERS\GIOVANNI\ANCIENT_MEMORIES\RME\SOURCE\PALETTE_BRUSHLIST.CPP|C:\USERS\GIOVANNI\ANCIENT_MEMORIES\RME\SOURCE\PALETTE_COMMON.CPP|C:\USERS\GIOVANNI\ANCIENT_MEMORIES\RME\SOURCE\PALETTE_CREATURE.CPP|C:\USERS\GIOVANNI\ANCIENT_MEMORIES\RME\SOURCE\PALETTE_HOUSE.CPP|C:\USERS\GIOVANNI\ANCIENT_MEMORIES\RME\SOURCE\PALETTE_WAYPOINTS.CPP|C:\USERS\GIOVANNI\ANCIENT_MEMORIES\RME\SOURCE\PALETTE_WINDOW.CPP|C:\USERS\GIOVANNI\ANCIENT_MEMORIES\RME\SOURCE\PNGFILES.CPP|C:\USERS\GIOVANNI\ANCIENT_MEMORIES\RME\SOURCE\POSITIONCTRL.CPP|C:\USERS\GIOVANNI\ANCIENT_MEMORIES\RME\SOURCE\PREFERENCES.CPP|C:\USERS\GIOVANNI\ANCIENT_MEMORIES\RME\SOURCE\PROCESS_COM.CPP|C:\USERS\GIOVANNI\ANCIENT_MEMORIES\RME\SOURCE\PROPERTIES_WINDOW.CPP|C:\USERS\GIOVANNI\ANCIENT_MEMORIES\RME\SOURCE\RAW_BRUSH.CPP|C:\USERS\GIOVANNI\ANCIENT_MEMORIES\RME\SOURCE\REPLACE_ITEMS_WINDOW.CPP|C:\USERS\GIOVANNI\ANCIENT_MEMORIES\RME\SOURCE\RESULT_WINDOW.CPP|C:\USERS\GIOVANNI\ANCIENT_MEMORIES\RME\SOURCE\RME_NET.CPP|C:\USERS\GIOVANNI\ANCIENT_MEMORIES\RME\SOURCE\SELECTION.CPP|C:\USERS\GIOVANNI\ANCIENT_MEMORIES\RME\SOURCE\SETTINGS.CPP|C:\USERS\GIOVANNI\ANCIENT_MEMORIES\RME\SOURCE\SPAWN.CPP|C:\USERS\GIOVANNI\ANCIENT_MEMORIES\RME\SOURCE\SPAWN_BRUSH.CPP|C:\USERS\GIOVANNI\ANCIENT_MEMORIES\RME\SOURCE\TABLE_BRUSH.CPP|C:\USERS\GIOVANNI\ANCIENT_MEMORIES\RME\SOURCE\TEMPLATEMAP76-74.CPP|C:\USERS\GIOVANNI\ANCIENT_MEMORIES\RME\SOURCE\TEMPLATEMAP81.CPP|C:\USERS\GIOVANNI\ANCIENT_MEMORIES\RME\SOURCE\TEMPLATEMAP854.CPP|C:\USERS\GIOVANNI\ANCIENT_MEMORIES\RME\SOURCE\TEMPLATEMAPCLASSIC.CPP|C:\USERS\GIOVANNI\ANCIENT_MEMORIES\RME\SOURCE\TILE.CPP|C:\USERS\GIOVANNI\ANCIENT_MEMORIES\RME\SOURCE\TILESET.CPP|C:\USERS\GIOVANNI\ANCIENT_MEMORIES\RME\SOURCE\TOWN.CPP|C:\USERS\GIOVANNI\ANCIENT_MEMORIES\RME\SOURCE\UPDATER.CPP|C:\USERS\GIOVANNI\ANCIENT_MEMORIES\RME\SOURCE\WALL_BRUSH.CPP|C:\USERS\GIOVANNI\ANCIENT_MEMORIES\RME\SOURCE\WAYPOINTS.CPP|C:\USERS\GIOVANNI\ANCIENT_MEMORIES\RME\SOURCE\WAYPOINT_BRUSH.CPP|C:\USERS\GIOVANNI\ANCIENT_MEMORIES\RME\SOURCE\WELCOME_DIALOG.CPP
C:\USERS\GIOVANNI\ANCIENT_MEMORIES\RME\VCPROJ\PROJECT\X64\RELEASE\ACTIONS_HISTORY_WINDOW.OBJ
C:\USERS\GIOVANNI\ANCIENT_MEMORIES\RME\VCPROJ\PROJECT\X64\RELEASE\FIND_ITEM_WINDOW.OBJ
C:\USERS\GIOVANNI\ANCIENT_MEMORIES\RME\VCPROJ\PROJECT\X64\RELEASE\REPLACE_ITEMS_WINDOW.OBJ
C:\USERS\GIOVANNI\ANCIENT_MEMORIES\RME\VCPROJ\PROJECT\X64\RELEASE\MAIN_TOOLBAR.OBJ
C:\USERS\GIOVANNI\ANCIENT_MEMORIES\RME\VCPROJ\PROJECT\X64\RELEASE\COMMON.OBJ
C:\USERS\GIOVANNI\ANCIENT_MEMORIES\RME\VCPROJ\PROJECT\X64\RELEASE\DAT_DEBUG_VIEW.OBJ
C:\USERS\GIOVANNI\ANCIENT_MEMORIES\RME\VCPROJ\PROJECT\X64\RELEASE\ERASER_BRUSH.OBJ
C:\USERS\GIOVANNI\ANCIENT_MEMORIES\RME\VCPROJ\PROJECT\X64\RELEASE\EXTENSION.OBJ
C:\USERS\GIOVANNI\ANCIENT_MEMORIES\RME\VCPROJ\PROJECT\X64\RELEASE\FILEHANDLE.OBJ
C:\USERS\GIOVANNI\ANCIENT_MEMORIES\RME\VCPROJ\PROJECT\X64\RELEASE\GROUND_BRUSH.OBJ
C:\USERS\GIOVANNI\ANCIENT_MEMORIES\RME\VCPROJ\PROJECT\X64\RELEASE\HOUSE_EXIT_BRUSH.OBJ
C:\USERS\GIOVANNI\ANCIENT_MEMORIES\RME\VCPROJ\PROJECT\X64\RELEASE\LIVE_ACTION.OBJ
C:\USERS\GIOVANNI\ANCIENT_MEMORIES\RME\VCPROJ\PROJECT\X64\RELEASE\LIVE_PEER.OBJ
C:\USERS\GIOVANNI\ANCIENT_MEMORIES\RME\VCPROJ\PROJECT\X64\RELEASE\LIVE_SERVER.OBJ
C:\USERS\GIOVANNI\ANCIENT_MEMORIES\RME\VCPROJ\PROJECT\X64\RELEASE\MAP_REGION.OBJ
C:\USERS\GIOVANNI\ANCIENT_MEMORIES\RME\VCPROJ\PROJECT\X64\RELEASE\MT_RAND.OBJ
C:\USERS\GIOVANNI\ANCIENT_MEMORIES\RME\VCPROJ\PROJECT\X64\RELEASE\NET_CONNECTION.OBJ
C:\USERS\GIOVANNI\ANCIENT_MEMORIES\RME\VCPROJ\PROJECT\X64\RELEASE\PROPERTIES_WINDOW.OBJ
C:\USERS\GIOVANNI\ANCIENT_MEMORIES\RME\VCPROJ\PROJECT\X64\RELEASE\SPAWN_BRUSH.OBJ
C:\USERS\GIOVANNI\ANCIENT_MEMORIES\RME\VCPROJ\PROJECT\X64\RELEASE\APPLICATION.OBJ
C:\USERS\GIOVANNI\ANCIENT_MEMORIES\RME\VCPROJ\PROJECT\X64\RELEASE\DCBUTTON.OBJ
C:\USERS\GIOVANNI\ANCIENT_MEMORIES\RME\VCPROJ\PROJECT\X64\RELEASE\GUI.OBJ
C:\USERS\GIOVANNI\ANCIENT_MEMORIES\RME\VCPROJ\PROJECT\X64\RELEASE\MAP_TAB.OBJ
C:\USERS\GIOVANNI\ANCIENT_MEMORIES\RME\VCPROJ\PROJECT\X64\RELEASE\MINIMAP_WINDOW.OBJ
C:\USERS\GIOVANNI\ANCIENT_MEMORIES\RME\VCPROJ\PROJECT\X64\RELEASE\PALETTE_BRUSHLIST.OBJ
C:\USERS\GIOVANNI\ANCIENT_MEMORIES\RME\VCPROJ\PROJECT\X64\RELEASE\PALETTE_HOUSE.OBJ
C:\USERS\GIOVANNI\ANCIENT_MEMORIES\RME\VCPROJ\PROJECT\X64\RELEASE\PALETTE_WINDOW.OBJ
C:\USERS\GIOVANNI\ANCIENT_MEMORIES\RME\VCPROJ\PROJECT\X64\RELEASE\COMMON_WINDOWS.OBJ
C:\USERS\GIOVANNI\ANCIENT_MEMORIES\RME\VCPROJ\PROJECT\X64\RELEASE\OLD_PROPERTIES_WINDOW.OBJ
C:\USERS\GIOVANNI\ANCIENT_MEMORIES\RME\VCPROJ\PROJECT\X64\RELEASE\MAP_DISPLAY.OBJ
C:\USERS\GIOVANNI\ANCIENT_MEMORIES\RME\VCPROJ\PROJECT\X64\RELEASE\MAP_WINDOW.OBJ
C:\USERS\GIOVANNI\ANCIENT_MEMORIES\RME\VCPROJ\PROJECT\X64\RELEASE\CLIENT_VERSION.OBJ
C:\USERS\GIOVANNI\ANCIENT_MEMORIES\RME\VCPROJ\PROJECT\X64\RELEASE\ITEMS.OBJ
C:\USERS\GIOVANNI\ANCIENT_MEMORIES\RME\VCPROJ\PROJECT\X64\RELEASE\SELECTION.OBJ
C:\USERS\GIOVANNI\ANCIENT_MEMORIES\RME\VCPROJ\PROJECT\X64\RELEASE\UPDATER.OBJ
C:\USERS\GIOVANNI\ANCIENT_MEMORIES\RME\VCPROJ\PROJECT\X64\RELEASE\BRUSH.OBJ
C:\USERS\GIOVANNI\ANCIENT_MEMORIES\RME\VCPROJ\PROJECT\X64\RELEASE\TILESET.OBJ
C:\USERS\GIOVANNI\ANCIENT_MEMORIES\RME\VCPROJ\PROJECT\X64\RELEASE\COMPLEXITEM.OBJ
C:\USERS\GIOVANNI\ANCIENT_MEMORIES\RME\VCPROJ\PROJECT\X64\RELEASE\ITEM.OBJ
C:\USERS\GIOVANNI\ANCIENT_MEMORIES\RME\VCPROJ\PROJECT\X64\RELEASE\SPAWN.OBJ
C:\USERS\GIOVANNI\ANCIENT_MEMORIES\RME\VCPROJ\PROJECT\X64\RELEASE\TEMPLATEMAP76-74.OBJ
C:\USERS\GIOVANNI\ANCIENT_MEMORIES\RME\VCPROJ\PROJECT\X64\RELEASE\TEMPLATEMAP81.OBJ
C:\USERS\GIOVANNI\ANCIENT_MEMORIES\RME\VCPROJ\PROJECT\X64\RELEASE\TEMPLATEMAP854.OBJ
C:\USERS\GIOVANNI\ANCIENT_MEMORIES\RME\VCPROJ\PROJECT\X64\RELEASE\TOWN.OBJ
C:\USERS\GIOVANNI\ANCIENT_MEMORIES\RME\VCPROJ\PROJECT\X64\RELEASE\WAYPOINTS.OBJ
C:\USERS\GIOVANNI\ANCIENT_MEMORIES\RME\VCPROJ\PROJECT\X64\RELEASE\IOMAP_OTBM.OBJ
C:\USERS\GIOVANNI\ANCIENT_MEMORIES\RME\VCPROJ\PROJECT\X64\RELEASE\PNGFILES.OBJ
C:\USERS\GIOVANNI\ANCIENT_MEMORIES\RME\VCPROJ\PROJECT\X64\RELEASE\ARTPROVIDER.OBJ
C:\USERS\GIOVANNI\ANCIENT_MEMORIES\RME\VCPROJ\PROJECT\X64\RELEASE\BRUSH_TABLES.OBJ
C:\USERS\GIOVANNI\ANCIENT_MEMORIES\RME\VCPROJ\PROJECT\X64\RELEASE\CONTAINER_PROPERTIES_WINDOW.OBJ
C:\USERS\GIOVANNI\ANCIENT_MEMORIES\RME\VCPROJ\PROJECT\X64\RELEASE\LIGHT_DRAWER.OBJ
C:\USERS\GIOVANNI\ANCIENT_MEMORIES\RME\VCPROJ\PROJECT\X64\RELEASE\IOMINIMAP.OBJ
C:\USERS\GIOVANNI\ANCIENT_MEMORIES\RME\VCPROJ\PROJECT\X64\RELEASE\WELCOME_DIALOG.OBJ
C:\USERS\GIOVANNI\ANCIENT_MEMORIES\RME\VCPROJ\PROJECT\X64\RELEASE\BROWSE_TILE_WINDOW.OBJ
C:\USERS\GIOVANNI\ANCIENT_MEMORIES\RME\VCPROJ\PROJECT\X64\RELEASE\POSITIONCTRL.OBJ
C:\USERS\GIOVANNI\ANCIENT_MEMORIES\RME\VCPROJ\PROJECT\X64\RELEASE\CARPET_BRUSH.OBJ
C:\USERS\GIOVANNI\ANCIENT_MEMORIES\RME\VCPROJ\PROJECT\X64\RELEASE\CREATURE_BRUSH.OBJ
C:\USERS\GIOVANNI\ANCIENT_MEMORIES\RME\VCPROJ\PROJECT\X64\RELEASE\DOODAD_BRUSH.OBJ
C:\USERS\GIOVANNI\ANCIENT_MEMORIES\RME\VCPROJ\PROJECT\X64\RELEASE\EXTENSION_WINDOW.OBJ
C:\USERS\GIOVANNI\ANCIENT_MEMORIES\RME\VCPROJ\PROJECT\X64\RELEASE\HOUSE_BRUSH.OBJ
C:\USERS\GIOVANNI\ANCIENT_MEMORIES\RME\VCPROJ\PROJECT\X64\RELEASE\LIVE_CLIENT.OBJ
C:\USERS\GIOVANNI\ANCIENT_MEMORIES\RME\VCPROJ\PROJECT\X64\RELEASE\LIVE_SOCKET.OBJ
C:\USERS\GIOVANNI\ANCIENT_MEMORIES\RME\VCPROJ\PROJECT\X64\RELEASE\LIVE_TAB.OBJ
C:\USERS\GIOVANNI\ANCIENT_MEMORIES\RME\VCPROJ\PROJECT\X64\RELEASE\NUMBERTEXTCTRL.OBJ
C:\USERS\GIOVANNI\ANCIENT_MEMORIES\RME\VCPROJ\PROJECT\X64\RELEASE\RAW_BRUSH.OBJ
C:\USERS\GIOVANNI\ANCIENT_MEMORIES\RME\VCPROJ\PROJECT\X64\RELEASE\RME_NET.OBJ
C:\USERS\GIOVANNI\ANCIENT_MEMORIES\RME\VCPROJ\PROJECT\X64\RELEASE\SETTINGS.OBJ
C:\USERS\GIOVANNI\ANCIENT_MEMORIES\RME\VCPROJ\PROJECT\X64\RELEASE\GRAPHICS.OBJ
C:\USERS\GIOVANNI\ANCIENT_MEMORIES\RME\VCPROJ\PROJECT\X64\RELEASE\EDITOR_TABS.OBJ
C:\USERS\GIOVANNI\ANCIENT_MEMORIES\RME\VCPROJ\PROJECT\X64\RELEASE\MAIN_MENUBAR.OBJ
C:\USERS\GIOVANNI\ANCIENT_MEMORIES\RME\VCPROJ\PROJECT\X64\RELEASE\PROCESS_COM.OBJ
C:\USERS\GIOVANNI\ANCIENT_MEMORIES\RME\VCPROJ\PROJECT\X64\RELEASE\PALETTE_COMMON.OBJ
C:\USERS\GIOVANNI\ANCIENT_MEMORIES\RME\VCPROJ\PROJECT\X64\RELEASE\PALETTE_CREATURE.OBJ
C:\USERS\GIOVANNI\ANCIENT_MEMORIES\RME\VCPROJ\PROJECT\X64\RELEASE\PALETTE_WAYPOINTS.OBJ
C:\USERS\GIOVANNI\ANCIENT_MEMORIES\RME\VCPROJ\PROJECT\X64\RELEASE\ABOUT_WINDOW.OBJ
C:\USERS\GIOVANNI\ANCIENT_MEMORIES\RME\VCPROJ\PROJECT\X64\RELEASE\PREFERENCES.OBJ
C:\USERS\GIOVANNI\ANCIENT_MEMORIES\RME\VCPROJ\PROJECT\X64\RELEASE\RESULT_WINDOW.OBJ
C:\USERS\GIOVANNI\ANCIENT_MEMORIES\RME\VCPROJ\PROJECT\X64\RELEASE\MAP_DRAWER.OBJ
C:\USERS\GIOVANNI\ANCIENT_MEMORIES\RME\VCPROJ\PROJECT\X64\RELEASE\ACTION.OBJ
C:\USERS\GIOVANNI\ANCIENT_MEMORIES\RME\VCPROJ\PROJECT\X64\RELEASE\COPYBUFFER.OBJ
C:\USERS\GIOVANNI\ANCIENT_MEMORIES\RME\VCPROJ\PROJECT\X64\RELEASE\CREATURES.OBJ
C:\USERS\GIOVANNI\ANCIENT_MEMORIES\RME\VCPROJ\PROJECT\X64\RELEASE\EDITOR.OBJ
C:\USERS\GIOVANNI\ANCIENT_MEMORIES\RME\VCPROJ\PROJECT\X64\RELEASE\TABLE_BRUSH.OBJ
C:\USERS\GIOVANNI\ANCIENT_MEMORIES\RME\VCPROJ\PROJECT\X64\RELEASE\TEMPLATEMAPCLASSIC.OBJ
C:\USERS\GIOVANNI\ANCIENT_MEMORIES\RME\VCPROJ\PROJECT\X64\RELEASE\MATERIALS.OBJ
C:\USERS\GIOVANNI\ANCIENT_MEMORIES\RME\VCPROJ\PROJECT\X64\RELEASE\BASEMAP.OBJ
C:\USERS\GIOVANNI\ANCIENT_MEMORIES\RME\VCPROJ\PROJECT\X64\RELEASE\CREATURE.OBJ
C:\USERS\GIOVANNI\ANCIENT_MEMORIES\RME\VCPROJ\PROJECT\X64\RELEASE\HOUSE.OBJ
C:\USERS\GIOVANNI\ANCIENT_MEMORIES\RME\VCPROJ\PROJECT\X64\RELEASE\ITEM_ATTRIBUTES.OBJ
C:\USERS\GIOVANNI\ANCIENT_MEMORIES\RME\VCPROJ\PROJECT\X64\RELEASE\MAP.OBJ
C:\USERS\GIOVANNI\ANCIENT_MEMORIES\RME\VCPROJ\PROJECT\X64\RELEASE\TILE.OBJ
C:\USERS\GIOVANNI\ANCIENT_MEMORIES\RME\VCPROJ\PROJECT\X64\RELEASE\WALL_BRUSH.OBJ
C:\USERS\GIOVANNI\ANCIENT_MEMORIES\RME\VCPROJ\PROJECT\X64\RELEASE\IOMAP.OBJ
C:\USERS\GIOVANNI\ANCIENT_MEMORIES\RME\VCPROJ\PROJECT\X64\RELEASE\WAYPOINT_BRUSH.OBJ
^C:\USERS\GIOVANNI\ANCIENT_MEMORIES\RME\SOURCE\ACTIONS_HISTORY_WINDOW.CPP
C:\USERS\GIOVANNI\ANCIENT_MEMORIES\RME\VCPROJ\PROJECT\X64\RELEASE\VC143.PDB
^C:\USERS\GIOVANNI\ANCIENT_MEMORIES\RME\SOURCE\ARTPROVIDER.CPP
C:\USERS\GIOVANNI\ANCIENT_MEMORIES\RME\VCPROJ\PROJECT\X64\RELEASE\VC143.PDB
^C:\USERS\GIOVANNI\ANCIENT_MEMORIES\RME\SOURCE\BRUSH_TABLES.CPP
C:\USERS\GIOVANNI\ANCIENT_MEMORIES\RME\VCPROJ\PROJECT\X64\RELEASE\VC143.PDB
^C:\USERS\GIOVANNI\ANCIENT_MEMORIES\RME\SOURCE\CONTAINER_PROPERTIES_WINDOW.CPP
C:\USERS\GIOVANNI\ANCIENT_MEMORIES\RME\VCPROJ\PROJECT\X64\RELEASE\VC143.PDB
^C:\USERS\GIOVANNI\ANCIENT_MEMORIES\RME\SOURCE\FIND_ITEM_WINDOW.CPP
C:\USERS\GIOVANNI\ANCIENT_MEMORIES\RME\VCPROJ\PROJECT\X64\RELEASE\VC143.PDB
^C:\USERS\GIOVANNI\ANCIENT_MEMORIES\RME\SOURCE\LIGHT_DRAWER.CPP
C:\USERS\GIOVANNI\ANCIENT_MEMORIES\RME\VCPROJ\PROJECT\X64\RELEASE\VC143.PDB
^C:\USERS\GIOVANNI\ANCIENT_MEMORIES\RME\SOURCE\IOMINIMAP.CPP
C:\USERS\GIOVANNI\ANCIENT_MEMORIES\RME\VCPROJ\PROJECT\X64\RELEASE\VC143.PDB
^C:\USERS\GIOVANNI\ANCIENT_MEMORIES\RME\SOURCE\REPLACE_ITEMS_WINDOW.CPP
C:\USERS\GIOVANNI\ANCIENT_MEMORIES\RME\VCPROJ\PROJECT\X64\RELEASE\VC143.PDB
^C:\USERS\GIOVANNI\ANCIENT_MEMORIES\RME\SOURCE\WELCOME_DIALOG.CPP
C:\USERS\GIOVANNI\ANCIENT_MEMORIES\RME\VCPROJ\PROJECT\X64\RELEASE\VC143.PDB
^C:\USERS\GIOVANNI\ANCIENT_MEMORIES\RME\SOURCE\BROWSE_TILE_WINDOW.CPP
C:\USERS\GIOVANNI\ANCIENT_MEMORIES\RME\VCPROJ\PROJECT\X64\RELEASE\VC143.PDB
^C:\USERS\GIOVANNI\ANCIENT_MEMORIES\RME\SOURCE\MAIN_TOOLBAR.CPP
C:\USERS\GIOVANNI\ANCIENT_MEMORIES\RME\VCPROJ\PROJECT\X64\RELEASE\VC143.PDB
^C:\USERS\GIOVANNI\ANCIENT_MEMORIES\RME\SOURCE\POSITIONCTRL.CPP
C:\USERS\GIOVANNI\ANCIENT_MEMORIES\RME\VCPROJ\PROJECT\X64\RELEASE\VC143.PDB
^C:\USERS\GIOVANNI\ANCIENT_MEMORIES\RME\SOURCE\CARPET_BRUSH.CPP
C:\USERS\GIOVANNI\ANCIENT_MEMORIES\RME\VCPROJ\PROJECT\X64\RELEASE\VC143.PDB
^C:\USERS\GIOVANNI\ANCIENT_MEMORIES\RME\SOURCE\COMMON.CPP
C:\USERS\GIOVANNI\ANCIENT_MEMORIES\RME\VCPROJ\PROJECT\X64\RELEASE\VC143.PDB
^C:\USERS\GIOVANNI\ANCIENT_MEMORIES\RME\SOURCE\CREATURE_BRUSH.CPP
C:\USERS\GIOVANNI\ANCIENT_MEMORIES\RME\VCPROJ\PROJECT\X64\RELEASE\VC143.PDB
^C:\USERS\GIOVANNI\ANCIENT_MEMORIES\RME\SOURCE\DAT_DEBUG_VIEW.CPP
C:\USERS\GIOVANNI\ANCIENT_MEMORIES\RME\VCPROJ\PROJECT\X64\RELEASE\VC143.PDB
^C:\USERS\GIOVANNI\ANCIENT_MEMORIES\RME\SOURCE\DOODAD_BRUSH.CPP
C:\USERS\GIOVANNI\ANCIENT_MEMORIES\RME\VCPROJ\PROJECT\X64\RELEASE\VC143.PDB
^C:\USERS\GIOVANNI\ANCIENT_MEMORIES\RME\SOURCE\ERASER_BRUSH.CPP
C:\USERS\GIOVANNI\ANCIENT_MEMORIES\RME\VCPROJ\PROJECT\X64\RELEASE\VC143.PDB
^C:\USERS\GIOVANNI\ANCIENT_MEMORIES\RME\SOURCE\EXTENSION.CPP
C:\USERS\GIOVANNI\ANCIENT_MEMORIES\RME\VCPROJ\PROJECT\X64\RELEASE\VC143.PDB
^C:\USERS\GIOVANNI\ANCIENT_MEMORIES\RME\SOURCE\EXTENSION_WINDOW.CPP
C:\USERS\GIOVANNI\ANCIENT_MEMORIES\RME\VCPROJ\PROJECT\X64\RELEASE\VC143.PDB
^C:\USERS\GIOVANNI\ANCIENT_MEMORIES\RME\SOURCE\FILEHANDLE.CPP
C:\USERS\GIOVANNI\ANCIENT_MEMORIES\RME\VCPROJ\PROJECT\X64\RELEASE\VC143.PDB
^C:\USERS\GIOVANNI\ANCIENT_MEMORIES\RME\SOURCE\GROUND_BRUSH.CPP
C:\USERS\GIOVANNI\ANCIENT_MEMORIES\RME\VCPROJ\PROJECT\X64\RELEASE\VC143.PDB
^C:\USERS\GIOVANNI\ANCIENT_MEMORIES\RME\SOURCE\HOUSE_BRUSH.CPP
C:\USERS\GIOVANNI\ANCIENT_MEMORIES\RME\VCPROJ\PROJECT\X64\RELEASE\VC143.PDB
^C:\USERS\GIOVANNI\ANCIENT_MEMORIES\RME\SOURCE\HOUSE_EXIT_BRUSH.CPP
C:\USERS\GIOVANNI\ANCIENT_MEMORIES\RME\VCPROJ\PROJECT\X64\RELEASE\VC143.PDB
^C:\USERS\GIOVANNI\ANCIENT_MEMORIES\RME\SOURCE\LIVE_ACTION.CPP
C:\USERS\GIOVANNI\ANCIENT_MEMORIES\RME\VCPROJ\PROJECT\X64\RELEASE\VC143.PDB
^C:\USERS\GIOVANNI\ANCIENT_MEMORIES\RME\SOURCE\LIVE_CLIENT.CPP
C:\USERS\GIOVANNI\ANCIENT_MEMORIES\RME\VCPROJ\PROJECT\X64\RELEASE\VC143.PDB
^C:\USERS\GIOVANNI\ANCIENT_MEMORIES\RME\SOURCE\LIVE_PEER.CPP
C:\USERS\GIOVANNI\ANCIENT_MEMORIES\RME\VCPROJ\PROJECT\X64\RELEASE\VC143.PDB
^C:\USERS\GIOVANNI\ANCIENT_MEMORIES\RME\SOURCE\LIVE_SERVER.CPP
C:\USERS\GIOVANNI\ANCIENT_MEMORIES\RME\VCPROJ\PROJECT\X64\RELEASE\VC143.PDB
^C:\USERS\GIOVANNI\ANCIENT_MEMORIES\RME\SOURCE\LIVE_SOCKET.CPP
C:\USERS\GIOVANNI\ANCIENT_MEMORIES\RME\VCPROJ\PROJECT\X64\RELEASE\VC143.PDB
^C:\USERS\GIOVANNI\ANCIENT_MEMORIES\RME\SOURCE\LIVE_TAB.CPP
C:\USERS\GIOVANNI\ANCIENT_MEMORIES\RME\VCPROJ\PROJECT\X64\RELEASE\VC143.PDB
^C:\USERS\GIOVANNI\ANCIENT_MEMORIES\RME\SOURCE\MAP_REGION.CPP
C:\USERS\GIOVANNI\ANCIENT_MEMORIES\RME\VCPROJ\PROJECT\X64\RELEASE\VC143.PDB
^C:\USERS\GIOVANNI\ANCIENT_MEMORIES\RME\SOURCE\MT_RAND.CPP
C:\USERS\GIOVANNI\ANCIENT_MEMORIES\RME\VCPROJ\PROJECT\X64\RELEASE\VC143.PDB
^C:\USERS\GIOVANNI\ANCIENT_MEMORIES\RME\SOURCE\NET_CONNECTION.CPP
C:\USERS\GIOVANNI\ANCIENT_MEMORIES\RME\VCPROJ\PROJECT\X64\RELEASE\VC143.PDB
^C:\USERS\GIOVANNI\ANCIENT_MEMORIES\RME\SOURCE\NUMBERTEXTCTRL.CPP
C:\USERS\GIOVANNI\ANCIENT_MEMORIES\RME\VCPROJ\PROJECT\X64\RELEASE\VC143.PDB
^C:\USERS\GIOVANNI\ANCIENT_MEMORIES\RME\SOURCE\PROPERTIES_WINDOW.CPP
C:\USERS\GIOVANNI\ANCIENT_MEMORIES\RME\VCPROJ\PROJECT\X64\RELEASE\VC143.PDB
^C:\USERS\GIOVANNI\ANCIENT_MEMORIES\RME\SOURCE\RAW_BRUSH.CPP
C:\USERS\GIOVANNI\ANCIENT_MEMORIES\RME\VCPROJ\PROJECT\X64\RELEASE\VC143.PDB
^C:\USERS\GIOVANNI\ANCIENT_MEMORIES\RME\SOURCE\RME_NET.CPP
C:\USERS\GIOVANNI\ANCIENT_MEMORIES\RME\VCPROJ\PROJECT\X64\RELEASE\VC143.PDB
^C:\USERS\GIOVANNI\ANCIENT_MEMORIES\RME\SOURCE\SETTINGS.CPP
C:\USERS\GIOVANNI\ANCIENT_MEMORIES\RME\VCPROJ\PROJECT\X64\RELEASE\VC143.PDB
^C:\USERS\GIOVANNI\ANCIENT_MEMORIES\RME\SOURCE\SPAWN_BRUSH.CPP
C:\USERS\GIOVANNI\ANCIENT_MEMORIES\RME\VCPROJ\PROJECT\X64\RELEASE\VC143.PDB
^C:\USERS\GIOVANNI\ANCIENT_MEMORIES\RME\SOURCE\GRAPHICS.CPP
C:\USERS\GIOVANNI\ANCIENT_MEMORIES\RME\VCPROJ\PROJECT\X64\RELEASE\VC143.PDB
^C:\USERS\GIOVANNI\ANCIENT_MEMORIES\RME\SOURCE\APPLICATION.CPP
C:\USERS\GIOVANNI\ANCIENT_MEMORIES\RME\VCPROJ\PROJECT\X64\RELEASE\VC143.PDB
^C:\USERS\GIOVANNI\ANCIENT_MEMORIES\RME\SOURCE\DCBUTTON.CPP
C:\USERS\GIOVANNI\ANCIENT_MEMORIES\RME\VCPROJ\PROJECT\X64\RELEASE\VC143.PDB
^C:\USERS\GIOVANNI\ANCIENT_MEMORIES\RME\SOURCE\EDITOR_TABS.CPP
C:\USERS\GIOVANNI\ANCIENT_MEMORIES\RME\VCPROJ\PROJECT\X64\RELEASE\VC143.PDB
^C:\USERS\GIOVANNI\ANCIENT_MEMORIES\RME\SOURCE\GUI.CPP
C:\USERS\GIOVANNI\ANCIENT_MEMORIES\RME\VCPROJ\PROJECT\X64\RELEASE\VC143.PDB
^C:\USERS\GIOVANNI\ANCIENT_MEMORIES\RME\SOURCE\MAIN_MENUBAR.CPP
C:\USERS\GIOVANNI\ANCIENT_MEMORIES\RME\VCPROJ\PROJECT\X64\RELEASE\VC143.PDB
^C:\USERS\GIOVANNI\ANCIENT_MEMORIES\RME\SOURCE\MAP_TAB.CPP
C:\USERS\GIOVANNI\ANCIENT_MEMORIES\RME\VCPROJ\PROJECT\X64\RELEASE\VC143.PDB
^C:\USERS\GIOVANNI\ANCIENT_MEMORIES\RME\SOURCE\MINIMAP_WINDOW.CPP
C:\USERS\GIOVANNI\ANCIENT_MEMORIES\RME\VCPROJ\PROJECT\X64\RELEASE\VC143.PDB
^C:\USERS\GIOVANNI\ANCIENT_MEMORIES\RME\SOURCE\PROCESS_COM.CPP
C:\USERS\GIOVANNI\ANCIENT_MEMORIES\RME\VCPROJ\PROJECT\X64\RELEASE\VC143.PDB
^C:\USERS\GIOVANNI\ANCIENT_MEMORIES\RME\SOURCE\PALETTE_BRUSHLIST.CPP
C:\USERS\GIOVANNI\ANCIENT_MEMORIES\RME\VCPROJ\PROJECT\X64\RELEASE\VC143.PDB
^C:\USERS\GIOVANNI\ANCIENT_MEMORIES\RME\SOURCE\PALETTE_COMMON.CPP
C:\USERS\GIOVANNI\ANCIENT_MEMORIES\RME\VCPROJ\PROJECT\X64\RELEASE\VC143.PDB
^C:\USERS\GIOVANNI\ANCIENT_MEMORIES\RME\SOURCE\PALETTE_CREATURE.CPP
C:\USERS\GIOVANNI\ANCIENT_MEMORIES\RME\VCPROJ\PROJECT\X64\RELEASE\VC143.PDB
^C:\USERS\GIOVANNI\ANCIENT_MEMORIES\RME\SOURCE\PALETTE_HOUSE.CPP
C:\USERS\GIOVANNI\ANCIENT_MEMORIES\RME\VCPROJ\PROJECT\X64\RELEASE\VC143.PDB
^C:\USERS\GIOVANNI\ANCIENT_MEMORIES\RME\SOURCE\PALETTE_WAYPOINTS.CPP
C:\USERS\GIOVANNI\ANCIENT_MEMORIES\RME\VCPROJ\PROJECT\X64\RELEASE\VC143.PDB
^C:\USERS\GIOVANNI\ANCIENT_MEMORIES\RME\SOURCE\PALETTE_WINDOW.CPP
C:\USERS\GIOVANNI\ANCIENT_MEMORIES\RME\VCPROJ\PROJECT\X64\RELEASE\VC143.PDB
^C:\USERS\GIOVANNI\ANCIENT_MEMORIES\RME\SOURCE\ABOUT_WINDOW.CPP
C:\USERS\GIOVANNI\ANCIENT_MEMORIES\RME\VCPROJ\PROJECT\X64\RELEASE\VC143.PDB
^C:\USERS\GIOVANNI\ANCIENT_MEMORIES\RME\SOURCE\COMMON_WINDOWS.CPP
C:\USERS\GIOVANNI\ANCIENT_MEMORIES\RME\VCPROJ\PROJECT\X64\RELEASE\VC143.PDB
^C:\USERS\GIOVANNI\ANCIENT_MEMORIES\RME\SOURCE\PREFERENCES.CPP
C:\USERS\GIOVANNI\ANCIENT_MEMORIES\RME\VCPROJ\PROJECT\X64\RELEASE\VC143.PDB
^C:\USERS\GIOVANNI\ANCIENT_MEMORIES\RME\SOURCE\OLD_PROPERTIES_WINDOW.CPP
C:\USERS\GIOVANNI\ANCIENT_MEMORIES\RME\VCPROJ\PROJECT\X64\RELEASE\VC143.PDB
^C:\USERS\GIOVANNI\ANCIENT_MEMORIES\RME\SOURCE\RESULT_WINDOW.CPP
C:\USERS\GIOVANNI\ANCIENT_MEMORIES\RME\VCPROJ\PROJECT\X64\RELEASE\VC143.PDB
^C:\USERS\GIOVANNI\ANCIENT_MEMORIES\RME\SOURCE\MAP_DISPLAY.CPP
C:\USERS\GIOVANNI\ANCIENT_MEMORIES\RME\VCPROJ\PROJECT\X64\RELEASE\VC143.PDB
^C:\USERS\GIOVANNI\ANCIENT_MEMORIES\RME\SOURCE\MAP_DRAWER.CPP
C:\USERS\GIOVANNI\ANCIENT_MEMORIES\RME\VCPROJ\PROJECT\X64\RELEASE\VC143.PDB
^C:\USERS\GIOVANNI\ANCIENT_MEMORIES\RME\SOURCE\MAP_WINDOW.CPP
C:\USERS\GIOVANNI\ANCIENT_MEMORIES\RME\VCPROJ\PROJECT\X64\RELEASE\VC143.PDB
^C:\USERS\GIOVANNI\ANCIENT_MEMORIES\RME\SOURCE\ACTION.CPP
C:\USERS\GIOVANNI\ANCIENT_MEMORIES\RME\VCPROJ\PROJECT\X64\RELEASE\VC143.PDB
^C:\USERS\GIOVANNI\ANCIENT_MEMORIES\RME\SOURCE\CLIENT_VERSION.CPP
C:\USERS\GIOVANNI\ANCIENT_MEMORIES\RME\VCPROJ\PROJECT\X64\RELEASE\VC143.PDB
^C:\USERS\GIOVANNI\ANCIENT_MEMORIES\RME\SOURCE\COPYBUFFER.CPP
C:\USERS\GIOVANNI\ANCIENT_MEMORIES\RME\VCPROJ\PROJECT\X64\RELEASE\VC143.PDB
^C:\USERS\GIOVANNI\ANCIENT_MEMORIES\RME\SOURCE\CREATURES.CPP
C:\USERS\GIOVANNI\ANCIENT_MEMORIES\RME\VCPROJ\PROJECT\X64\RELEASE\VC143.PDB
^C:\USERS\GIOVANNI\ANCIENT_MEMORIES\RME\SOURCE\EDITOR.CPP
C:\USERS\GIOVANNI\ANCIENT_MEMORIES\RME\VCPROJ\PROJECT\X64\RELEASE\VC143.PDB
^C:\USERS\GIOVANNI\ANCIENT_MEMORIES\RME\SOURCE\ITEMS.CPP
C:\USERS\GIOVANNI\ANCIENT_MEMORIES\RME\VCPROJ\PROJECT\X64\RELEASE\VC143.PDB
^C:\USERS\GIOVANNI\ANCIENT_MEMORIES\RME\SOURCE\SELECTION.CPP
C:\USERS\GIOVANNI\ANCIENT_MEMORIES\RME\VCPROJ\PROJECT\X64\RELEASE\VC143.PDB
^C:\USERS\GIOVANNI\ANCIENT_MEMORIES\RME\SOURCE\TABLE_BRUSH.CPP
C:\USERS\GIOVANNI\ANCIENT_MEMORIES\RME\VCPROJ\PROJECT\X64\RELEASE\VC143.PDB
^C:\USERS\GIOVANNI\ANCIENT_MEMORIES\RME\SOURCE\TEMPLATEMAPCLASSIC.CPP
C:\USERS\GIOVANNI\ANCIENT_MEMORIES\RME\VCPROJ\PROJECT\X64\RELEASE\VC143.PDB
^C:\USERS\GIOVANNI\ANCIENT_MEMORIES\RME\SOURCE\UPDATER.CPP
C:\USERS\GIOVANNI\ANCIENT_MEMORIES\RME\VCPROJ\PROJECT\X64\RELEASE\VC143.PDB
^C:\USERS\GIOVANNI\ANCIENT_MEMORIES\RME\SOURCE\BRUSH.CPP
C:\USERS\GIOVANNI\ANCIENT_MEMORIES\RME\VCPROJ\PROJECT\X64\RELEASE\VC143.PDB
^C:\USERS\GIOVANNI\ANCIENT_MEMORIES\RME\SOURCE\MATERIALS.CPP
C:\USERS\GIOVANNI\ANCIENT_MEMORIES\RME\VCPROJ\PROJECT\X64\RELEASE\VC143.PDB
^C:\USERS\GIOVANNI\ANCIENT_MEMORIES\RME\SOURCE\TILESET.CPP
C:\USERS\GIOVANNI\ANCIENT_MEMORIES\RME\VCPROJ\PROJECT\X64\RELEASE\VC143.PDB
^C:\USERS\GIOVANNI\ANCIENT_MEMORIES\RME\SOURCE\BASEMAP.CPP
C:\USERS\GIOVANNI\ANCIENT_MEMORIES\RME\VCPROJ\PROJECT\X64\RELEASE\VC143.PDB
^C:\USERS\GIOVANNI\ANCIENT_MEMORIES\RME\SOURCE\COMPLEXITEM.CPP
C:\USERS\GIOVANNI\ANCIENT_MEMORIES\RME\VCPROJ\PROJECT\X64\RELEASE\VC143.PDB
^C:\USERS\GIOVANNI\ANCIENT_MEMORIES\RME\SOURCE\CREATURE.CPP
C:\USERS\GIOVANNI\ANCIENT_MEMORIES\RME\VCPROJ\PROJECT\X64\RELEASE\VC143.PDB
^C:\USERS\GIOVANNI\ANCIENT_MEMORIES\RME\SOURCE\HOUSE.CPP
C:\USERS\GIOVANNI\ANCIENT_MEMORIES\RME\VCPROJ\PROJECT\X64\RELEASE\VC143.PDB
^C:\USERS\GIOVANNI\ANCIENT_MEMORIES\RME\SOURCE\ITEM.CPP
C:\USERS\GIOVANNI\ANCIENT_MEMORIES\RME\VCPROJ\PROJECT\X64\RELEASE\VC143.PDB
^C:\USERS\GIOVANNI\ANCIENT_MEMORIES\RME\SOURCE\ITEM_ATTRIBUTES.CPP
C:\USERS\GIOVANNI\ANCIENT_MEMORIES\RME\VCPROJ\PROJECT\X64\RELEASE\VC143.PDB
^C:\USERS\GIOVANNI\ANCIENT_MEMORIES\RME\SOURCE\MAP.CPP
C:\USERS\GIOVANNI\ANCIENT_MEMORIES\RME\VCPROJ\PROJECT\X64\RELEASE\VC143.PDB
^C:\USERS\GIOVANNI\ANCIENT_MEMORIES\RME\SOURCE\SPAWN.CPP
C:\USERS\GIOVANNI\ANCIENT_MEMORIES\RME\VCPROJ\PROJECT\X64\RELEASE\VC143.PDB
^C:\USERS\GIOVANNI\ANCIENT_MEMORIES\RME\SOURCE\TEMPLATEMAP76-74.CPP
C:\USERS\GIOVANNI\ANCIENT_MEMORIES\RME\VCPROJ\PROJECT\X64\RELEASE\VC143.PDB
^C:\USERS\GIOVANNI\ANCIENT_MEMORIES\RME\SOURCE\TEMPLATEMAP81.CPP
C:\USERS\GIOVANNI\ANCIENT_MEMORIES\RME\VCPROJ\PROJECT\X64\RELEASE\VC143.PDB
^C:\USERS\GIOVANNI\ANCIENT_MEMORIES\RME\SOURCE\TEMPLATEMAP854.CPP
C:\USERS\GIOVANNI\ANCIENT_MEMORIES\RME\VCPROJ\PROJECT\X64\RELEASE\VC143.PDB
^C:\USERS\GIOVANNI\ANCIENT_MEMORIES\RME\SOURCE\TILE.CPP
C:\USERS\GIOVANNI\ANCIENT_MEMORIES\RME\VCPROJ\PROJECT\X64\RELEASE\VC143.PDB
^C:\USERS\GIOVANNI\ANCIENT_MEMORIES\RME\SOURCE\TOWN.CPP
C:\USERS\GIOVANNI\ANCIENT_MEMORIES\RME\VCPROJ\PROJECT\X64\RELEASE\VC143.PDB
^C:\USERS\GIOVANNI\ANCIENT_MEMORIES\RME\SOURCE\WALL_BRUSH.CPP
C:\USERS\GIOVANNI\ANCIENT_MEMORIES\RME\VCPROJ\PROJECT\X64\RELEASE\VC143.PDB
^C:\USERS\GIOVANNI\ANCIENT_MEMORIES\RME\SOURCE\WAYPOINTS.CPP
C:\USERS\GIOVANNI\ANCIENT_MEMORIES\RME\VCPROJ\PROJECT\X64\RELEASE\VC143.PDB
^C:\USERS\GIOVANNI\ANCIENT_MEMORIES\RME\SOURCE\IOMAP.CPP
C:\USERS\GIOVANNI\ANCIENT_MEMORIES\RME\VCPROJ\PROJECT\X64\RELEASE\VC143.PDB
^C:\USERS\GIOVANNI\ANCIENT_MEMORIES\RME\SOURCE\IOMAP_OTBM.CPP
C:\USERS\GIOVANNI\ANCIENT_MEMORIES\RME\VCPROJ\PROJECT\X64\RELEASE\VC143.PDB
^C:\USERS\GIOVANNI\ANCIENT_MEMORIES\RME\SOURCE\WAYPOINT_BRUSH.CPP
C:\USERS\GIOVANNI\ANCIENT_MEMORIES\RME\VCPROJ\PROJECT\X64\RELEASE\VC143.PDB
^C:\USERS\GIOVANNI\ANCIENT_MEMORIES\RME\SOURCE\PNGFILES.CPP
C:\USERS\GIOVANNI\ANCIENT_MEMORIES\RME\VCPROJ\PROJECT\X64\RELEASE\VC143.PDB
