{
  "$schema": "https://raw.githubusercontent.com/spdx/spdx-spec/v2.2.1/schemas/spdx-schema.json",
  "spdxVersion": "SPDX-2.2",
  "dataLicense": "CC0-1.0",
  "SPDXID": "SPDXRef-DOCUMENT",
  "documentNamespace": "https://spdx.org/spdxdocs/protobuf-x64-windows-static-3.21.12-9fb5335e-8854-462b-bbf3-fc604a878d0c",
  "name": "protobuf:x64-windows-static@3.21.12 3b66612987f134e81c16f4608c43e73b821d631fbd7f356dad3b31bae77cd539",
  "creationInfo": {
    "creators": [
      "Tool: vcpkg-9990a4c9026811a312cb2af78bf77f3d9d288416"
    ],
    "created": "2023-08-31T03:44:24Z"
  },
  "relationships": [
    {
      "spdxElementId": "SPDXRef-port",
      "relationshipType": "GENERATES",
      "relatedSpdxElement": "SPDXRef-binary"
    },
    {
      "spdxElementId": "SPDXRef-port",
      "relationshipType": "CONTAINS",
      "relatedSpdxElement": "SPDXRef-file-0"
    },
    {
      "spdxElementId": "SPDXRef-port",
      "relationshipType": "CONTAINS",
      "relatedSpdxElement": "SPDXRef-file-1"
    },
    {
      "spdxElementId": "SPDXRef-port",
      "relationshipType": "CONTAINS",
      "relatedSpdxElement": "SPDXRef-file-2"
    },
    {
      "spdxElementId": "SPDXRef-port",
      "relationshipType": "CONTAINS",
      "relatedSpdxElement": "SPDXRef-file-3"
    },
    {
      "spdxElementId": "SPDXRef-port",
      "relationshipType": "CONTAINS",
      "relatedSpdxElement": "SPDXRef-file-4"
    },
    {
      "spdxElementId": "SPDXRef-port",
      "relationshipType": "CONTAINS",
      "relatedSpdxElement": "SPDXRef-file-5"
    },
    {
      "spdxElementId": "SPDXRef-port",
      "relationshipType": "CONTAINS",
      "relatedSpdxElement": "SPDXRef-file-6"
    },
    {
      "spdxElementId": "SPDXRef-binary",
      "relationshipType": "GENERATED_FROM",
      "relatedSpdxElement": "SPDXRef-port"
    },
    {
      "spdxElementId": "SPDXRef-file-0",
      "relationshipType": "CONTAINED_BY",
      "relatedSpdxElement": "SPDXRef-port"
    },
    {
      "spdxElementId": "SPDXRef-file-1",
      "relationshipType": "CONTAINED_BY",
      "relatedSpdxElement": "SPDXRef-port"
    },
    {
      "spdxElementId": "SPDXRef-file-2",
      "relationshipType": "CONTAINED_BY",
      "relatedSpdxElement": "SPDXRef-port"
    },
    {
      "spdxElementId": "SPDXRef-file-3",
      "relationshipType": "CONTAINED_BY",
      "relatedSpdxElement": "SPDXRef-port"
    },
    {
      "spdxElementId": "SPDXRef-file-4",
      "relationshipType": "CONTAINED_BY",
      "relatedSpdxElement": "SPDXRef-port"
    },
    {
      "spdxElementId": "SPDXRef-file-5",
      "relationshipType": "CONTAINED_BY",
      "relatedSpdxElement": "SPDXRef-port"
    },
    {
      "spdxElementId": "SPDXRef-file-6",
      "relationshipType": "CONTAINED_BY",
      "relatedSpdxElement": "SPDXRef-port"
    }
  ],
  "packages": [
    {
      "name": "protobuf",
      "SPDXID": "SPDXRef-port",
      "versionInfo": "3.21.12",
      "downloadLocation": "git+https://github.com/Microsoft/vcpkg@3b145508ba614fe26989b23f6317f15bf6467be4",
      "homepage": "https://github.com/protocolbuffers/protobuf",
      "licenseConcluded": "BSD-3-Clause",
      "licenseDeclared": "NOASSERTION",
      "copyrightText": "NOASSERTION",
      "description": "Protocol Buffers - Google's data interchange format",
      "comment": "This is the port (recipe) consumed by vcpkg."
    },
    {
      "name": "protobuf:x64-windows-static",
      "SPDXID": "SPDXRef-binary",
      "versionInfo": "3b66612987f134e81c16f4608c43e73b821d631fbd7f356dad3b31bae77cd539",
      "downloadLocation": "NONE",
      "licenseConcluded": "BSD-3-Clause",
      "licenseDeclared": "NOASSERTION",
      "copyrightText": "NOASSERTION",
      "comment": "This is a binary package built by vcpkg."
    },
    {
      "SPDXID": "SPDXRef-resource-1",
      "name": "protocolbuffers/protobuf",
      "downloadLocation": "git+https://github.com/protocolbuffers/protobuf@v3.21.12",
      "licenseConcluded": "NOASSERTION",
      "licenseDeclared": "NOASSERTION",
      "copyrightText": "NOASSERTION",
      "checksums": [
        {
          "algorithm": "SHA512",
          "checksumValue": "152f8441c325e808b942153c15e82fdb533d5273b50c25c28916ec568ada880f79242bb61ee332ac5fb0d20f21239ed6f8de02ef6256cc574b1fc354d002c6b0"
        }
      ]
    }
  ],
  "files": [
    {
      "fileName": "./C:/vcpkg/buildtrees/versioning_/versions/protobuf/3b145508ba614fe26989b23f6317f15bf6467be4/compile_options.patch",
      "SPDXID": "SPDXRef-file-0",
      "checksums": [
        {
          "algorithm": "SHA256",
          "checksumValue": "2cee33ca7844b27e275ebed87fe419e432f9ed774c539c0aee8cc5b1923710a9"
        }
      ],
      "licenseConcluded": "NOASSERTION",
      "copyrightText": "NOASSERTION"
    },
    {
      "fileName": "./C:/vcpkg/buildtrees/versioning_/versions/protobuf/3b145508ba614fe26989b23f6317f15bf6467be4/fix-default-proto-file-path.patch",
      "SPDXID": "SPDXRef-file-1",
      "checksums": [
        {
          "algorithm": "SHA256",
          "checksumValue": "a991a3e51e4c0d91b30b5dcaacee9009abf510dd172efa08c9184f7d0609e3e1"
        }
      ],
      "licenseConcluded": "NOASSERTION",
      "copyrightText": "NOASSERTION"
    },
    {
      "fileName": "./C:/vcpkg/buildtrees/versioning_/versions/protobuf/3b145508ba614fe26989b23f6317f15bf6467be4/fix-static-build.patch",
      "SPDXID": "SPDXRef-file-2",
      "checksums": [
        {
          "algorithm": "SHA256",
          "checksumValue": "8997787fc7f393557f86475f448156fee9720f79014f7cdf398668647b525316"
        }
      ],
      "licenseConcluded": "NOASSERTION",
      "copyrightText": "NOASSERTION"
    },
    {
      "fileName": "./C:/vcpkg/buildtrees/versioning_/versions/protobuf/3b145508ba614fe26989b23f6317f15bf6467be4/portfile.cmake",
      "SPDXID": "SPDXRef-file-3",
      "checksums": [
        {
          "algorithm": "SHA256",
          "checksumValue": "a952ba2d0166e54fd576d8b063df5feeae233234f0a4dee7aa9e60599f23ebf6"
        }
      ],
      "licenseConcluded": "NOASSERTION",
      "copyrightText": "NOASSERTION"
    },
    {
      "fileName": "./C:/vcpkg/buildtrees/versioning_/versions/protobuf/3b145508ba614fe26989b23f6317f15bf6467be4/protobuf-targets-vcpkg-protoc.cmake",
      "SPDXID": "SPDXRef-file-4",
      "checksums": [
        {
          "algorithm": "SHA256",
          "checksumValue": "f1cb32a8e19a263b6fc7e275d4a31bd724320394b1991b56772dd769feec20ad"
        }
      ],
      "licenseConcluded": "NOASSERTION",
      "copyrightText": "NOASSERTION"
    },
    {
      "fileName": "./C:/vcpkg/buildtrees/versioning_/versions/protobuf/3b145508ba614fe26989b23f6317f15bf6467be4/vcpkg-cmake-wrapper.cmake",
      "SPDXID": "SPDXRef-file-5",
      "checksums": [
        {
          "algorithm": "SHA256",
          "checksumValue": "6381f7b8fdc47d1e7a9e2bb088625b73f2df8790581bb477f006fa15402ae1ca"
        }
      ],
      "licenseConcluded": "NOASSERTION",
      "copyrightText": "NOASSERTION"
    },
    {
      "fileName": "./C:/vcpkg/buildtrees/versioning_/versions/protobuf/3b145508ba614fe26989b23f6317f15bf6467be4/vcpkg.json",
      "SPDXID": "SPDXRef-file-6",
      "checksums": [
        {
          "algorithm": "SHA256",
          "checksumValue": "92436a7da64663f7999aa086567b71505447dc94cd2898ab3df0b2a98d6e31ed"
        }
      ],
      "licenseConcluded": "NOASSERTION",
      "copyrightText": "NOASSERTION"
    }
  ]
}
